Final Project Using Mimic iii Data
…
#count of age
data4 %>% dplyr::count (age, sort= TRUE) # count of age

# A tibble: 4,942 x 2
     age     n
   <dbl> <int>
 1  90     875
 2  63.7    11
 3  75.2    11
 4  75.6    11
 5  70.8    10
 6  81.2    10
 7  84.4    10
 8  58.1     9
 9  63.1     9
10  64.2     9
# ... with 4,932 more rows

#875 people 90yr or older , with next highest at 11 people at 63.7yrs old,75.2,75.6

data4 %>% dplyr::count (age, mortality, sort= TRUE) # count of dead by age

# A tibble: 6,508 x 3
     age mortality     n
   <dbl> <fct>     <int>
 1  90   FALSE       651
 2  90   TRUE        224
 3  63.7 FALSE        10
 4  70.8 FALSE         9
 5  75.2 FALSE         9
 6  84.4 FALSE         9
 7  58.1 FALSE         8
 8  63.1 FALSE         8
 9  64.4 FALSE         8
10  66.0 FALSE         8
# ... with 6,498 more rows
…
#comorbidities<- what effect is death rate

#count of comorbidities
data4 %>% dplyr::count (comorbidities, sort= TRUE) # count of comorbidities

# A tibble: 38 x 2
   comorbidities     n
           <int> <int>
 1             9  2466
 2            14   734
 3            13   697
 4            15   693
 5            12   680
 6            16   664
 7            17   649
 8            11   609
 9             8   580
10            18   573
# ... with 28 more rows

# 1             9  2466
# 2            14   734
# 3            13   697
# 4            15   693
# 5            12   680
# 6            16   664
# 7            17   649
# 8            11   609
# 9             8   580
#10            18   573

data4 %>% dplyr::count (comorbidities, mortality, sort= TRUE) # count of 

# A tibble: 76 x 3
   comorbidities mortality     n
           <int> <fct>     <int>
 1             9 FALSE      1979
 2            14 FALSE       610
 3            12 FALSE       584
 4            13 FALSE       581
 5            15 FALSE       581
 6            16 FALSE       540
 7            17 FALSE       522
 8            11 FALSE       514
 9             8 FALSE       496
10             9 TRUE        487
# ... with 66 more rows
…
